<!--
  Copyright © 2021 Arne-Brün Vogelsang <arne@monocles.de>.

  This file is part of monocles browser <https://monocles.de/more>. It is a
 * fork of Privacy Browser, which is Copyright © 2015-2021 Soren Stoutner
 * <soren@stoutner.com>.

  It is a modified version of `bookmarks`, which is part of the Android Material icon set and is released under the Apache License 2.0.

  monocles browser is free software: you can redistribute it and/or modify
  it under the terms of the GNU General Public License as published by
  the Free Software Foundation, either version 3 of the License, or
  (at your option) any later version.

  monocles browser is distributed in the hope that it will be useful,
  but WITHOUT ANY WARRANTY; without even the implied warranty of
  MERCHANTABILITY or FITNESS FOR A PARTICULAR PURPOSE.  See the
  GNU General Public License for more details.

  You should have received a copy of the GNU General Public License
  along with monocles browser.  If not, see <http://www.gnu.org/licenses/>. -->

<svg
  xmlns="http://www.w3.org/2000/svg"
  viewBox="0 0 24 24"
  id="icon" >

  <path
    d="M19 18l2 1V3c0-1.1-.9-2-2-2H8.99C7.89 1 7 1.9 7 3h10c1.1 0 2 .9 2 2v13zM15 5H5c-1.1 0-2 .9-2 2v16l7-3 7 3V7c0-1.1-.9-2-2-2z" />
</svg>