<!--
  Copyright © 2021 Arne-Brün Vogelsang <arne@monocles.de>.

  This file is part of monocles browser <https://monocles.de/more>. It is a
 * fork of Privacy Browser, which is Copyright © 2015-2021 Soren Stoutner
 * <soren@stoutner.com>.

  It is a modified version of `link_off`, which is part of the Android Material icon set and is released under the Apache License 2.0.

  monocles browser is free software: you can redistribute it and/or modify
  it under the terms of the GNU General Public License as published by
  the Free Software Foundation, either version 3 of the License, or
  (at your option) any later version.

  monocles browser is distributed in the hope that it will be useful,
  but WITHOUT ANY WARRANTY; without even the implied warranty of
  MERCHANTABILITY or FITNESS FOR A PARTICULAR PURPOSE.  See the
  GNU General Public License for more details.

  You should have received a copy of the GNU General Public License
  along with monocles browser.  If not, see <http://www.gnu.org/licenses/>. -->

<svg
  xmlns="http://www.w3.org/2000/svg"
  viewBox="0 0 24 24"
  id="icon" >

  <path
    d="M17 7h-4v1.9h4c1.71 0 3.1 1.39 3.1 3.1 0 1.43-.98 2.63-2.31 2.98l1.46 1.46C20.88 15.61 22 13.95 22 12c0-2.76-2.24-5-5-5zm-1 4h-2.19l2 2H16zM2 4.27l3.11 3.11C3.29 8.12 2 9.91 2 12c0 2.76 2.24 5 5 5h4v-1.9H7c-1.71 0-3.1-1.39-3.1-3.1 0-1.59 1.21-2.9 2.76-3.07L8.73 11H8v2h2.73L13 15.27V17h1.73l4.01 4L20 19.74 3.27 3 2 4.27z" />
</svg>