<!--
  Copyright © 2017,2021 Arne-Brün Vogelsang <arne@monocles.de>.

  This file is part of monocles browser <https://monocles.de/more>. It is a
 * fork of Privacy Browser, which is Copyright © 2015-2021 Soren Stoutner
 * <soren@stoutner.com>.

  It is derived from elements of `compare`, which is part of the Android Material icon set and is released under the Apache License 2.0.

  monocles browser is free software: you can redistribute it and/or modify
  it under the terms of the GNU General Public License as published by
  the Free Software Foundation, either version 3 of the License, or
  (at your option) any later version.

  monocles browser is distributed in the hope that it will be useful,
  but WITHOUT ANY WARRANTY; without even the implied warranty of
  MERCHANTABILITY or FITNESS FOR A PARTICULAR PURPOSE.  See the
  GNU General Public License for more details.

  You should have received a copy of the GNU General Public License
  along with monocles browser.  If not, see <http://www.gnu.org/licenses/>. -->

<svg
  xmlns="http://www.w3.org/2000/svg"
  viewBox="0 0 24 24"
  id="icon" >

  <path
    d="m 14,3 h 5 c 1.1,0 2,0.9 2,2 v 14 c 0,1.1 -0.9,2 -2,2 h -5 v 2 H 12 V 1 h 2 z m 0,15 h 5 L 14,12 Z M 5,3 h 5 V 5 H 5 v 13 l 5,-6 v 9 H 5 C 3.9,21 3,20.1 3,19 V 5 C 3,3.9 3.9,3 5,3 Z" />
</svg>