<!--
  Copyright © 2021 Arne-Brün Vogelsang <arne@monocles.de>.

  This file is part of monocles browser <https://monocles.de/more>. It is a
 * fork of Privacy Browser, which is Copyright © 2015-2021 Soren Stoutner
 * <soren@stoutner.com>.

  It is a modified version of `settings_overscan`, which is part of the Android Material icon set and is released under the Apache License 2.0.

  monocles browser is free software: you can redistribute it and/or modify
  it under the terms of the GNU General Public License as published by
  the Free Software Foundation, either version 3 of the License, or
  (at your option) any later version.

  monocles browser is distributed in the hope that it will be useful,
  but WITHOUT ANY WARRANTY; without even the implied warranty of
  MERCHANTABILITY or FITNESS FOR A PARTICULAR PURPOSE.  See the
  GNU General Public License for more details.

  You should have received a copy of the GNU General Public License
  along with monocles browser.  If not, see <http://www.gnu.org/licenses/>. -->

<svg
  xmlns="http://www.w3.org/2000/svg"
  viewBox="0 0 24 24"
  id="icon" >

  <path
    d="M12.01 5.5L10 8h4l-1.99-2.5zM18 10v4l2.5-1.99L18 10zM6 10l-2.5 2.01L6 14v-4zm8 6h-4l2.01 2.5L14 16zm7-13H3c-1.1 0-2 .9-2 2v14c0 1.1.9 2 2 2h18c1.1 0 2-.9 2-2V5c0-1.1-.9-2-2-2zm0 16.01H3V4.99h18v14.02z" />
</svg>