<!--
  Copyright © 2019-2021 Arne-Brün Vogelsang <arne@monocles.de>.

  This file is part of monocles browser <https://monocles.de/more>. It is a
 * fork of Privacy Browser, which is Copyright © 2015-2021 Soren Stoutner
 * <soren@stoutner.com>.

  It is derived from elements of `compare`, which is part of the Android Material icon set and is released under the Apache License 2.0.

  monocles browser is free software: you can redistribute it and/or modify
  it under the terms of the GNU General Public License as published by
  the Free Software Foundation, either version 3 of the License, or
  (at your option) any later version.

  monocles browser is distributed in the hope that it will be useful,
  but WITHOUT ANY WARRANTY; without even the implied warranty of
  MERCHANTABILITY or FITNESS FOR A PARTICULAR PURPOSE.  See the
  GNU General Public License for more details.

  You should have received a copy of the GNU General Public License
  along with monocles browser.  If not, see <http://www.gnu.org/licenses/>. -->

<svg
  xmlns="http://www.w3.org/2000/svg"
  viewBox="0 0 24 24" >

  <style>
    rect {
      fill: #E0E0E0;
    }

    path {
      fill: #000000;
    }

    @media (prefers-color-scheme: dark) {
      rect {
        fill: #616161;
      }

      path {
        fill: #FFFFFF;
      }
    }
  </style>

  <!-- Background -->
  <g>
    <rect
      width="24"
      height="24"
      x="0"
      y="0"
      ry="3.1525424" />
  </g>

  <!-- Foreground -->
  <g>
    <path
      d="M 3,18 H 9 V 16 H 3 Z M 3,6.0000002 v 2 h 18 v -2 z M 3,13 H 15 V 11 H 3 Z" />
  </g>
</svg>
